MA [46]15 Final Project TEAM 9 – blogpost5
…
# Step 3: Clean data & compute total enrollment per school
enrollment_clean <- enrollment %>%
  mutate(across(all_of(student_columns), ~ ifelse(. < 0, 0, .))) %>%
  rowwise() %>%
  mutate(Total_Students = sum(c_across(all_of(student_columns)), na.rm = TRUE)) %>%
  ungroup()

# Step 4: Preview results
enrollment_clean %>%
  filter(LEA_STATE == "MA") %>%
  select(SCH_NAME, Total_Students)

# A tibble: 1,868 × 2
   SCH_NAME                       Total_Students
   <chr>                                   <dbl>
 1 Quabbin Regional High School              619
 2 Quabbin Regional Middle School            532
 3 Hardwick Elementary                       187
 4 Hubbardston Center                        307
 5 New Braintree Grade                        47
 6 Oakham Center                             124
 7 Ruggles Lane                              374
 8 Knox Trail Middle School                  406
 9 East Brookfield Elementary                145
10 David Prouty High                         343
# ℹ 1,858 more rows
…
